%YAML 1.1
%TAG !u! tag:unity3d.com,2011:
--- !u!78 &1
TagManager:
  serializedVersion: 2
  tags: []
  layers:
  - Default
  - TransparentFX
  - Ignore Raycast
  - 
  - Water
  - UI
  - 
  - 
  - Projectiles
  - Obstacles
  - InsanityPickups
  - PassWalls
  - 
  - 
  - 
  - 
  - 
  - 
  - 
  - 
  - 
  - 
  - 
  - 
  - 
  - 
  - 
  - 
  - 
  - 
  - 
  - PostEffects
  m_SortingLayers:
  - name: Background
    uniqueID: 1526301223
    locked: 0
  - name: DecorationBackground
    uniqueID: 1643655099
    locked: 0
  - name: Default
    uniqueID: 0
    locked: 0
  - name: Player
    uniqueID: 3878370989
    locked: 0
  - name: Foreground
    uniqueID: 4039337707
    locked: 0
  - name: DecorationForeground
    uniqueID: 1241425589
    locked: 0
