%YAML 1.1
%TAG !u! tag:unity3d.com,2011:
--- !u!114 &11400000
MonoBehaviour:
  m_ObjectHideFlags: 0
  m_CorrespondingSourceObject: {fileID: 0}
  m_PrefabInternal: {fileID: 0}
  m_GameObject: {fileID: 0}
  m_Enabled: 1
  m_EditorHideFlags: 0
  m_Script: {fileID: 11500000, guid: 90ee0eaa00a661640a9b51a867fbb824, type: 3}
  m_Name: FogSpellProjectile
  m_EditorClassIdentifier: 
  ProjectilePrefab: {fileID: 114957578329314772, guid: 5dac2c1f3767de94da5724bd4ee3be3a,
    type: 2}
  HitEveryone: 0
