%YAML 1.1
%TAG !u! tag:unity3d.com,2011:
--- !u!114 &11400000
MonoBehaviour:
  m_ObjectHideFlags: 0
  m_CorrespondingSourceObject: {fileID: 0}
  m_PrefabInternal: {fileID: 0}
  m_GameObject: {fileID: 0}
  m_Enabled: 1
  m_EditorHideFlags: 0
  m_Script: {fileID: 11500000, guid: 02c1682291a3abe43bc2d2ca0d4ced69, type: 3}
  m_Name: TrapImpactAbility
  m_EditorClassIdentifier: 
  ImpactPrefab: {fileID: 114006793355492440, guid: cac712aaa00341f4da0e71acd73f6c44,
    type: 2}
  HitEveryone: 0
  MaxRandomCenterOffset: 1.5
