%YAML 1.1
%TAG !u! tag:unity3d.com,2011:
--- !u!114 &11400000
MonoBehaviour:
  m_ObjectHideFlags: 0
  m_CorrespondingSourceObject: {fileID: 0}
  m_PrefabInternal: {fileID: 0}
  m_GameObject: {fileID: 0}
  m_Enabled: 1
  m_EditorHideFlags: 0
  m_Script: {fileID: 11500000, guid: 68b952342118b704b9d99925bc607f79, type: 3}
  m_Name: FantasyBlast_Lvl1
  m_EditorClassIdentifier: 
  DisplayName: Fantasy Blast
  Icon: {fileID: 21300000, guid: ab990602096c2684fb1ff4c5250fbc5e, type: 3}
  MaxCooldown: 5
  MinCooldown: 2
  AbilityObject: {fileID: 11400000, guid: c173b59cb717a0140a112df98a781415, type: 2}
