%YAML 1.1
%TAG !u! tag:unity3d.com,2011:
--- !u!1001 &100100000
Prefab:
  m_ObjectHideFlags: 1
  serializedVersion: 2
  m_Modification:
    m_TransformParent: {fileID: 0}
    m_Modifications: []
    m_RemovedComponents: []
  m_SourcePrefab: {fileID: 0}
  m_RootGameObject: {fileID: 1354191625494578}
  m_IsPrefabAsset: 1
--- !u!1 &1354191625494578
GameObject:
  m_ObjectHideFlags: 0
  m_CorrespondingSourceObject: {fileID: 0}
  m_PrefabInternal: {fileID: 100100000}
  serializedVersion: 6
  m_Component:
  - component: {fileID: 4777385321792384}
  - component: {fileID: 212121025338564220}
  - component: {fileID: 60832060375213936}
  - component: {fileID: 114745959690988030}
  m_Layer: 0
  m_Name: Bett
  m_TagString: Untagged
  m_Icon: {fileID: 0}
  m_NavMeshLayer: 0
  m_StaticEditorFlags: 0
  m_IsActive: 1
--- !u!4 &4777385321792384
Transform:
  m_ObjectHideFlags: 1
  m_CorrespondingSourceObject: {fileID: 0}
  m_PrefabInternal: {fileID: 100100000}
  m_GameObject: {fileID: 1354191625494578}
  m_LocalRotation: {x: -0, y: -0, z: -0, w: 1}
  m_LocalPosition: {x: -3.127, y: 2.516, z: -0.04361282}
  m_LocalScale: {x: 2, y: 2, z: 2}
  m_Children: []
  m_Father: {fileID: 0}
  m_RootOrder: 0
  m_LocalEulerAnglesHint: {x: 0, y: 0, z: 0}
--- !u!60 &60832060375213936
PolygonCollider2D:
  m_ObjectHideFlags: 1
  m_CorrespondingSourceObject: {fileID: 0}
  m_PrefabInternal: {fileID: 100100000}
  m_GameObject: {fileID: 1354191625494578}
  m_Enabled: 1
  m_Density: 1
  m_Material: {fileID: 0}
  m_IsTrigger: 0
  m_UsedByEffector: 0
  m_UsedByComposite: 0
  m_Offset: {x: 0, y: 0}
  m_SpriteTilingProperty:
    border: {x: 0, y: 0, z: 0, w: 0}
    pivot: {x: 0.5, y: 0.5}
    oldSize: {x: 1, y: 1}
    newSize: {x: 1, y: 1}
    adaptiveTilingThreshold: 0.5
    drawMode: 0
    adaptiveTiling: 0
  m_AutoTiling: 0
  m_Points:
    m_Paths:
    - - {x: -0.14453125, y: -0.3310547}
      - {x: 0.14257812, y: -0.3310547}
      - {x: 0.15527344, y: -0.3359375}
      - {x: 0.15722656, y: -0.3984375}
      - {x: 0.16503906, y: -0.40625}
      - {x: 0.18359375, y: -0.39941406}
      - {x: 0.18554688, y: -0.31835938}
      - {x: 0.18652344, y: -0.22265625}
      - {x: 0.18652344, y: 0.2421875}
      - {x: 0.1875, y: 0.24414062}
      - {x: 0.1875, y: 0.3046875}
      - {x: 0.17871094, y: 0.3310547}
      - {x: 0.15234375, y: 0.35058594}
      - {x: -0.15136719, y: 0.35058594}
      - {x: -0.16601562, y: 0.33984375}
      - {x: -0.17480469, y: 0.33007812}
      - {x: -0.1875, y: 0.29589844}
      - {x: -0.1875, y: 0.26757812}
      - {x: -0.18554688, y: 0.26757812}
      - {x: -0.18554688, y: -0.26464844}
      - {x: -0.1875, y: -0.26464844}
      - {x: -0.1875, y: -0.34472656}
      - {x: -0.18457031, y: -0.39453125}
      - {x: -0.18164062, y: -0.40820312}
      - {x: -0.16210938, y: -0.40820312}
      - {x: -0.15625, y: -0.39746094}
      - {x: -0.15136719, y: -0.33398438}
      - {x: -0.14746094, y: -0.33398438}
    - - {x: -0.16992188, y: 0.2919922}
      - {x: -0.15429688, y: 0.32714844}
      - {x: -0.15820312, y: 0.25585938}
      - {x: -0.171875, y: 0.2548828}
    - - {x: -0.12597656, y: 0.33691406}
      - {x: -0.12695312, y: 0.31054688}
      - {x: -0.12695312, y: 0.25878906}
      - {x: -0.13769531, y: 0.25585938}
    - - {x: -0.109375, y: 0.25585938}
      - {x: -0.109375, y: 0.32421875}
      - {x: -0.11035156, y: 0.2548828}
    - - {x: -0.07519531, y: 0.33789062}
      - {x: -0.056640625, y: 0.33691406}
      - {x: -0.056640625, y: 0.2548828}
      - {x: -0.07519531, y: 0.2548828}
    - - {x: -0.040039062, y: 0.33789062}
      - {x: -0.021484375, y: 0.33789062}
      - {x: -0.021484375, y: 0.2548828}
      - {x: -0.040039062, y: 0.2548828}
    - - {x: -0.00390625, y: 0.25585938}
      - {x: -0.00390625, y: 0.3154297}
      - {x: 0.0107421875, y: 0.25976562}
      - {x: 0.0126953125, y: 0.2548828}
      - {x: -0.0048828125, y: 0.2548828}
    - - {x: 0.02734375, y: 0.2578125}
      - {x: 0.02734375, y: 0.33789062}
      - {x: 0.04296875, y: 0.33496094}
      - {x: 0.04296875, y: 0.2548828}
    - - {x: 0.060546875, y: 0.3173828}
      - {x: 0.07714844, y: 0.33789062}
      - {x: 0.07714844, y: 0.2548828}
      - {x: 0.060546875, y: 0.2548828}
    - - {x: 0.09375, y: 0.33496094}
      - {x: 0.109375, y: 0.3359375}
      - {x: 0.109375, y: 0.2548828}
      - {x: 0.09375, y: 0.2548828}
    - - {x: 0.12597656, y: 0.3125}
      - {x: 0.14453125, y: 0.33496094}
      - {x: 0.14257812, y: 0.2919922}
      - {x: 0.12695312, y: 0.25585938}
    - - {x: 0.16210938, y: 0.3046875}
      - {x: 0.16015625, y: 0.32421875}
      - {x: 0.17089844, y: 0.26953125}
      - {x: 0.16210938, y: 0.2548828}
--- !u!114 &114745959690988030
MonoBehaviour:
  m_ObjectHideFlags: 1
  m_CorrespondingSourceObject: {fileID: 0}
  m_PrefabInternal: {fileID: 100100000}
  m_GameObject: {fileID: 1354191625494578}
  m_Enabled: 1
  m_EditorHideFlags: 0
  m_Script: {fileID: 11500000, guid: 76886e9705135884cb5e166316ec530b, type: 3}
  m_Name: 
  m_EditorClassIdentifier: 
--- !u!212 &212121025338564220
SpriteRenderer:
  m_ObjectHideFlags: 1
  m_CorrespondingSourceObject: {fileID: 0}
  m_PrefabInternal: {fileID: 100100000}
  m_GameObject: {fileID: 1354191625494578}
  m_Enabled: 1
  m_CastShadows: 0
  m_ReceiveShadows: 0
  m_DynamicOccludee: 1
  m_MotionVectors: 1
  m_LightProbeUsage: 1
  m_ReflectionProbeUsage: 1
  m_RenderingLayerMask: 4294967295
  m_Materials:
  - {fileID: 10754, guid: 0000000000000000f000000000000000, type: 0}
  m_StaticBatchInfo:
    firstSubMesh: 0
    subMeshCount: 0
  m_StaticBatchRoot: {fileID: 0}
  m_ProbeAnchor: {fileID: 0}
  m_LightProbeVolumeOverride: {fileID: 0}
  m_ScaleInLightmap: 1
  m_PreserveUVs: 0
  m_IgnoreNormalsForChartDetection: 0
  m_ImportantGI: 0
  m_StitchLightmapSeams: 0
  m_SelectedEditorRenderState: 0
  m_MinimumChartSize: 4
  m_AutoUVMaxDistance: 0.5
  m_AutoUVMaxAngle: 89
  m_LightmapParameters: {fileID: 0}
  m_SortingLayerID: 0
  m_SortingLayer: 0
  m_SortingOrder: 0
  m_Sprite: {fileID: 21300000, guid: 13151131d3fa17a468a107cda09e9e91, type: 3}
  m_Color: {r: 1, g: 1, b: 1, a: 1}
  m_FlipX: 0
  m_FlipY: 0
  m_DrawMode: 0
  m_Size: {x: 1, y: 1}
  m_AdaptiveModeThreshold: 0.5
  m_SpriteTileMode: 0
  m_WasSpriteAssigned: 1
  m_MaskInteraction: 0
  m_SpriteSortPoint: 0
