%YAML 1.1
%TAG !u! tag:unity3d.com,2011:
--- !u!1001 &100100000
Prefab:
  m_ObjectHideFlags: 1
  serializedVersion: 2
  m_Modification:
    m_TransformParent: {fileID: 0}
    m_Modifications: []
    m_RemovedComponents: []
  m_SourcePrefab: {fileID: 0}
  m_RootGameObject: {fileID: 1993387258160312}
  m_IsPrefabAsset: 1
--- !u!1 &1993387258160312
GameObject:
  m_ObjectHideFlags: 0
  m_CorrespondingSourceObject: {fileID: 0}
  m_PrefabInternal: {fileID: 100100000}
  serializedVersion: 6
  m_Component:
  - component: {fileID: 4701519007337684}
  - component: {fileID: 212572112124086972}
  - component: {fileID: 60727140550220744}
  - component: {fileID: 114412997842219136}
  m_Layer: 0
  m_Name: Phiole2
  m_TagString: Untagged
  m_Icon: {fileID: 0}
  m_NavMeshLayer: 0
  m_StaticEditorFlags: 0
  m_IsActive: 1
--- !u!4 &4701519007337684
Transform:
  m_ObjectHideFlags: 1
  m_CorrespondingSourceObject: {fileID: 0}
  m_PrefabInternal: {fileID: 100100000}
  m_GameObject: {fileID: 1993387258160312}
  m_LocalRotation: {x: -0, y: -0, z: -0, w: 1}
  m_LocalPosition: {x: -3.748, y: 1.063, z: -0.04361282}
  m_LocalScale: {x: 0.41497, y: 0.41497, z: 0.41497}
  m_Children: []
  m_Father: {fileID: 0}
  m_RootOrder: 0
  m_LocalEulerAnglesHint: {x: 0, y: 0, z: 0}
--- !u!60 &60727140550220744
PolygonCollider2D:
  m_ObjectHideFlags: 1
  m_CorrespondingSourceObject: {fileID: 0}
  m_PrefabInternal: {fileID: 100100000}
  m_GameObject: {fileID: 1993387258160312}
  m_Enabled: 1
  m_Density: 1
  m_Material: {fileID: 0}
  m_IsTrigger: 0
  m_UsedByEffector: 0
  m_UsedByComposite: 0
  m_Offset: {x: 0, y: 0}
  m_SpriteTilingProperty:
    border: {x: 0, y: 0, z: 0, w: 0}
    pivot: {x: 0.5, y: 0.5}
    oldSize: {x: 1, y: 1}
    newSize: {x: 1, y: 1}
    adaptiveTilingThreshold: 0.5
    drawMode: 0
    adaptiveTiling: 0
  m_AutoTiling: 0
  m_Points:
    m_Paths:
    - - {x: 0.09863281, y: -0.25195312}
      - {x: 0.123046875, y: -0.22851562}
      - {x: 0.13964844, y: -0.20605469}
      - {x: 0.15136719, y: -0.18261719}
      - {x: 0.15722656, y: -0.16308594}
      - {x: 0.16015625, y: -0.14257812}
      - {x: 0.16015625, y: -0.095703125}
      - {x: 0.14941406, y: -0.056640625}
      - {x: 0.13574219, y: -0.03515625}
      - {x: 0.123046875, y: -0.017578125}
      - {x: 0.09472656, y: 0.0087890625}
      - {x: 0.087890625, y: 0.0126953125}
      - {x: 0.06640625, y: 0.025390625}
      - {x: 0.057617188, y: 0.028320312}
      - {x: 0.059570312, y: 0.2783203}
      - {x: 0.060546875, y: 0.28125}
      - {x: 0.057617188, y: 0.31640625}
      - {x: 0.052734375, y: 0.3251953}
      - {x: 0.045898438, y: 0.328125}
      - {x: 0.043945312, y: 0.3564453}
      - {x: 0.0390625, y: 0.36621094}
      - {x: 0.034179688, y: 0.36816406}
      - {x: -0.049804688, y: 0.36816406}
      - {x: -0.05859375, y: 0.36035156}
      - {x: -0.0625, y: 0.32617188}
      - {x: -0.06738281, y: 0.32226562}
      - {x: -0.06933594, y: 0.3173828}
      - {x: -0.06933594, y: 0.022460938}
      - {x: -0.078125, y: 0.01953125}
      - {x: -0.10644531, y: 0}
      - {x: -0.12890625, y: -0.024414062}
      - {x: -0.1484375, y: -0.056640625}
      - {x: -0.15527344, y: -0.076171875}
      - {x: -0.15625, y: -0.083984375}
      - {x: -0.15917969, y: -0.099609375}
      - {x: -0.16015625, y: -0.10546875}
      - {x: -0.16015625, y: -0.14648438}
      - {x: -0.15722656, y: -0.16308594}
      - {x: -0.15039062, y: -0.18261719}
      - {x: -0.14160156, y: -0.20117188}
      - {x: -0.12890625, y: -0.22167969}
      - {x: -0.10546875, y: -0.24609375}
      - {x: -0.087890625, y: -0.25976562}
      - {x: -0.076171875, y: -0.26660156}
      - {x: -0.017578125, y: -0.26660156}
      - {x: -0.017578125, y: -0.265625}
      - {x: 0.07519531, y: -0.265625}
      - {x: 0.080078125, y: -0.26367188}
--- !u!114 &114412997842219136
MonoBehaviour:
  m_ObjectHideFlags: 1
  m_CorrespondingSourceObject: {fileID: 0}
  m_PrefabInternal: {fileID: 100100000}
  m_GameObject: {fileID: 1993387258160312}
  m_Enabled: 1
  m_EditorHideFlags: 0
  m_Script: {fileID: 11500000, guid: 76886e9705135884cb5e166316ec530b, type: 3}
  m_Name: 
  m_EditorClassIdentifier: 
--- !u!212 &212572112124086972
SpriteRenderer:
  m_ObjectHideFlags: 1
  m_CorrespondingSourceObject: {fileID: 0}
  m_PrefabInternal: {fileID: 100100000}
  m_GameObject: {fileID: 1993387258160312}
  m_Enabled: 1
  m_CastShadows: 0
  m_ReceiveShadows: 0
  m_DynamicOccludee: 1
  m_MotionVectors: 1
  m_LightProbeUsage: 1
  m_ReflectionProbeUsage: 1
  m_RenderingLayerMask: 4294967295
  m_Materials:
  - {fileID: 10754, guid: 0000000000000000f000000000000000, type: 0}
  m_StaticBatchInfo:
    firstSubMesh: 0
    subMeshCount: 0
  m_StaticBatchRoot: {fileID: 0}
  m_ProbeAnchor: {fileID: 0}
  m_LightProbeVolumeOverride: {fileID: 0}
  m_ScaleInLightmap: 1
  m_PreserveUVs: 0
  m_IgnoreNormalsForChartDetection: 0
  m_ImportantGI: 0
  m_StitchLightmapSeams: 0
  m_SelectedEditorRenderState: 0
  m_MinimumChartSize: 4
  m_AutoUVMaxDistance: 0.5
  m_AutoUVMaxAngle: 89
  m_LightmapParameters: {fileID: 0}
  m_SortingLayerID: 0
  m_SortingLayer: 0
  m_SortingOrder: 0
  m_Sprite: {fileID: 21300000, guid: 19596de82bdb25c428fa93ab2528f27f, type: 3}
  m_Color: {r: 1, g: 1, b: 1, a: 1}
  m_FlipX: 0
  m_FlipY: 0
  m_DrawMode: 0
  m_Size: {x: 1, y: 1}
  m_AdaptiveModeThreshold: 0.5
  m_SpriteTileMode: 0
  m_WasSpriteAssigned: 1
  m_MaskInteraction: 0
  m_SpriteSortPoint: 0
