%YAML 1.1
%TAG !u! tag:unity3d.com,2011:
--- !u!1001 &100100000
Prefab:
  m_ObjectHideFlags: 1
  serializedVersion: 2
  m_Modification:
    m_TransformParent: {fileID: 0}
    m_Modifications: []
    m_RemovedComponents: []
  m_SourcePrefab: {fileID: 0}
  m_RootGameObject: {fileID: 1259581702507700}
  m_IsPrefabAsset: 1
--- !u!1 &1259581702507700
GameObject:
  m_ObjectHideFlags: 0
  m_CorrespondingSourceObject: {fileID: 0}
  m_PrefabInternal: {fileID: 100100000}
  serializedVersion: 6
  m_Component:
  - component: {fileID: 4559142422124336}
  - component: {fileID: 212962653332021002}
  - component: {fileID: 60544312778931300}
  - component: {fileID: 114973473073652462}
  m_Layer: 0
  m_Name: Rollstuhl
  m_TagString: Untagged
  m_Icon: {fileID: 0}
  m_NavMeshLayer: 0
  m_StaticEditorFlags: 0
  m_IsActive: 1
--- !u!4 &4559142422124336
Transform:
  m_ObjectHideFlags: 1
  m_CorrespondingSourceObject: {fileID: 0}
  m_PrefabInternal: {fileID: 100100000}
  m_GameObject: {fileID: 1259581702507700}
  m_LocalRotation: {x: -0, y: -0, z: -0, w: 1}
  m_LocalPosition: {x: -2.94, y: 1.23, z: -0.04361282}
  m_LocalScale: {x: 2, y: 2, z: 2}
  m_Children: []
  m_Father: {fileID: 0}
  m_RootOrder: 0
  m_LocalEulerAnglesHint: {x: 0, y: 0, z: 0}
--- !u!60 &60544312778931300
PolygonCollider2D:
  m_ObjectHideFlags: 1
  m_CorrespondingSourceObject: {fileID: 0}
  m_PrefabInternal: {fileID: 100100000}
  m_GameObject: {fileID: 1259581702507700}
  m_Enabled: 1
  m_Density: 1
  m_Material: {fileID: 0}
  m_IsTrigger: 0
  m_UsedByEffector: 0
  m_UsedByComposite: 0
  m_Offset: {x: 0, y: 0}
  m_SpriteTilingProperty:
    border: {x: 0, y: 0, z: 0, w: 0}
    pivot: {x: 0.5, y: 0.5}
    oldSize: {x: 1, y: 1}
    newSize: {x: 1, y: 1}
    adaptiveTilingThreshold: 0.5
    drawMode: 0
    adaptiveTiling: 0
  m_AutoTiling: 0
  m_Points:
    m_Paths:
    - - {x: 0.06640625, y: -0.11230469}
      - {x: 0.08105469, y: -0.08300781}
      - {x: 0.08300781, y: -0.055664062}
      - {x: 0.09082031, y: -0.055664062}
      - {x: 0.09082031, y: -0.06933594}
      - {x: 0.09472656, y: -0.0859375}
      - {x: 0.09277344, y: -0.09863281}
      - {x: 0.09277344, y: -0.11328125}
      - {x: 0.09765625, y: -0.123046875}
      - {x: 0.109375, y: -0.12890625}
      - {x: 0.12109375, y: -0.13085938}
      - {x: 0.13476562, y: -0.123046875}
      - {x: 0.140625, y: -0.109375}
      - {x: 0.14257812, y: -0.09765625}
      - {x: 0.12695312, y: -0.08203125}
      - {x: 0.111328125, y: -0.076171875}
      - {x: 0.11621094, y: -0.07324219}
      - {x: 0.12109375, y: -0.06347656}
      - {x: 0.12109375, y: -0.0546875}
      - {x: 0.12011719, y: -0.022460938}
      - {x: 0.1171875, y: 0.0107421875}
      - {x: 0.11621094, y: 0.0126953125}
      - {x: 0.11621094, y: 0.1171875}
      - {x: 0.1171875, y: 0.11816406}
      - {x: 0.11816406, y: 0.123046875}
      - {x: 0.13671875, y: 0.14550781}
      - {x: 0.14746094, y: 0.14648438}
      - {x: 0.15136719, y: 0.14941406}
      - {x: 0.15136719, y: 0.15917969}
      - {x: 0.1484375, y: 0.16503906}
      - {x: 0.1328125, y: 0.17675781}
      - {x: 0.103515625, y: 0.20898438}
      - {x: 0.09667969, y: 0.203125}
      - {x: 0.07519531, y: 0.22363281}
      - {x: 0.064453125, y: 0.22363281}
      - {x: 0.0625, y: 0.21582031}
      - {x: 0.06542969, y: 0.20507812}
      - {x: 0.032226562, y: 0.11425781}
      - {x: 0.018554688, y: 0.11425781}
      - {x: -0.013671875, y: 0.11035156}
      - {x: -0.021484375, y: 0.10644531}
      - {x: -0.021484375, y: 0.10058594}
      - {x: -0.0146484375, y: 0.09667969}
      - {x: -0.03125, y: 0.09082031}
      - {x: -0.041992188, y: 0.08984375}
      - {x: -0.06347656, y: 0.08105469}
      - {x: -0.072265625, y: 0.07421875}
      - {x: -0.08886719, y: 0.057617188}
      - {x: -0.09765625, y: 0.045898438}
      - {x: -0.10546875, y: 0.030273438}
      - {x: -0.11035156, y: 0.005859375}
      - {x: -0.109375, y: -0.01171875}
      - {x: -0.115234375, y: -0.024414062}
      - {x: -0.11816406, y: -0.04296875}
      - {x: -0.11816406, y: -0.059570312}
      - {x: -0.1171875, y: -0.068359375}
      - {x: -0.115234375, y: -0.08300781}
      - {x: -0.1015625, y: -0.11230469}
      - {x: -0.09277344, y: -0.12109375}
      - {x: -0.07910156, y: -0.13378906}
      - {x: -0.057617188, y: -0.14746094}
      - {x: -0.0390625, y: -0.15332031}
      - {x: -0.030273438, y: -0.15429688}
      - {x: -0.01171875, y: -0.15429688}
      - {x: -0.0029296875, y: -0.15332031}
      - {x: 0.01171875, y: -0.15136719}
      - {x: 0.032226562, y: -0.14257812}
      - {x: 0.049804688, y: -0.12890625}
    - - {x: -0.018554688, y: -0.12695312}
      - {x: -0.0146484375, y: -0.09375}
      - {x: -0.00390625, y: -0.09277344}
      - {x: -0.0009765625, y: -0.095703125}
      - {x: 0.013671875, y: -0.11816406}
      - {x: 0.01953125, y: -0.125}
      - {x: 0.0087890625, y: -0.12890625}
      - {x: -0.0068359375, y: -0.13183594}
      - {x: -0.018554688, y: -0.13476562}
    - - {x: -0.060546875, y: -0.11621094}
      - {x: -0.0546875, y: -0.109375}
      - {x: -0.0390625, y: -0.091796875}
      - {x: -0.03125, y: -0.09667969}
      - {x: -0.034179688, y: -0.12402344}
      - {x: -0.034179688, y: -0.13183594}
    - - {x: 0.026367188, y: -0.11035156}
      - {x: 0.025390625, y: -0.10644531}
      - {x: 0.0126953125, y: -0.087890625}
      - {x: 0.040039062, y: -0.103515625}
      - {x: 0.0390625, y: -0.111328125}
      - {x: 0.03125, y: -0.11816406}
      - {x: 0.032226562, y: -0.11816406}
    - - {x: -0.07519531, y: -0.11035156}
      - {x: -0.07910156, y: -0.09375}
      - {x: -0.056640625, y: -0.087890625}
      - {x: -0.06738281, y: -0.10058594}
    - - {x: 0.037109375, y: -0.083984375}
      - {x: 0.030273438, y: -0.07910156}
      - {x: 0.033203125, y: -0.07714844}
      - {x: 0.037109375, y: -0.07519531}
    - - {x: -0.07421875, y: -0.072265625}
      - {x: -0.07128906, y: -0.07519531}
      - {x: -0.07128906, y: -0.07421875}
      - {x: -0.080078125, y: -0.078125}
      - {x: -0.08203125, y: -0.078125}
    - - {x: 0.057617188, y: -0.0546875}
      - {x: 0.061523438, y: -0.048828125}
      - {x: 0.06347656, y: -0.048828125}
      - {x: 0.061523438, y: -0.055664062}
    - - {x: 0.0078125, y: -0.053710938}
      - {x: 0.009765625, y: -0.0546875}
      - {x: 0.0146484375, y: -0.051757812}
      - {x: 0.016601562, y: -0.051757812}
      - {x: 0.017578125, y: -0.052734375}
    - - {x: -0.076171875, y: -0.04296875}
      - {x: -0.059570312, y: -0.034179688}
      - {x: -0.05078125, y: -0.041992188}
      - {x: -0.055664062, y: -0.047851562}
    - - {x: -0.09863281, y: -0.043945312}
      - {x: -0.09667969, y: -0.046875}
      - {x: -0.09765625, y: -0.045898438}
    - - {x: 0.04296875, y: -0.040039062}
      - {x: 0.045898438, y: -0.038085938}
      - {x: 0.044921875, y: -0.038085938}
      - {x: 0.040039062, y: -0.044921875}
      - {x: 0.040039062, y: -0.043945312}
    - - {x: 0.009765625, y: -0.0390625}
      - {x: 0.0068359375, y: -0.0390625}
      - {x: 0, y: -0.04296875}
      - {x: 0.0009765625, y: -0.043945312}
    - - {x: 0.026367188, y: -0.02734375}
      - {x: 0.034179688, y: -0.028320312}
      - {x: 0.034179688, y: -0.02734375}
      - {x: 0.03125, y: -0.028320312}
    - - {x: -0.083984375, y: -0.02734375}
      - {x: -0.087890625, y: -0.01953125}
      - {x: -0.083984375, y: -0.017578125}
      - {x: -0.07910156, y: -0.021484375}
    - - {x: -0.005859375, y: -0.02734375}
      - {x: -0.005859375, y: -0.029296875}
      - {x: -0.0048828125, y: -0.029296875}
    - - {x: -0.068359375, y: -0.0107421875}
      - {x: -0.060546875, y: -0.01171875}
      - {x: -0.060546875, y: -0.0146484375}
      - {x: -0.05859375, y: -0.016601562}
    - - {x: -0.06640625, y: 0.0048828125}
      - {x: -0.064453125, y: 0.0029296875}
      - {x: -0.076171875, y: 0.001953125}
      - {x: -0.07519531, y: 0.001953125}
    - - {x: -0.08105469, y: 0.03125}
      - {x: -0.0703125, y: 0.047851562}
      - {x: -0.05859375, y: 0.057617188}
      - {x: -0.0546875, y: 0.052734375}
      - {x: -0.048828125, y: 0.045898438}
      - {x: -0.072265625, y: 0.032226562}
    - - {x: 0.043945312, y: 0.034179688}
      - {x: 0.045898438, y: 0.03125}
      - {x: 0.040039062, y: 0.030273438}
      - {x: 0.041015625, y: 0.030273438}
    - - {x: 0.016601562, y: 0.041992188}
      - {x: 0.015625, y: 0.041992188}
      - {x: 0.0234375, y: 0.049804688}
      - {x: 0.024414062, y: 0.049804688}
    - - {x: 0.06347656, y: 0.045898438}
      - {x: 0.057617188, y: 0.053710938}
      - {x: 0.064453125, y: 0.040039062}
      - {x: 0.06542969, y: 0.041015625}
    - - {x: -0.03515625, y: 0.0546875}
      - {x: -0.044921875, y: 0.06542969}
      - {x: -0.026367188, y: 0.0703125}
      - {x: -0.025390625, y: 0.047851562}
    - - {x: 0, y: 0.06933594}
      - {x: 0.0009765625, y: 0.068359375}
      - {x: 0.0029296875, y: 0.068359375}
      - {x: 0.00390625, y: 0.06738281}
      - {x: 0.0009765625, y: 0.06738281}
    - - {x: 0.028320312, y: 0.08105469}
      - {x: 0.005859375, y: 0.09277344}
      - {x: 0.038085938, y: 0.09472656}
      - {x: 0.06347656, y: 0.09375}
      - {x: 0.06347656, y: 0.080078125}
    - - {x: 0.1171875, y: 0.16113281}
      - {x: 0.11621094, y: 0.16210938}
      - {x: 0.115234375, y: 0.17089844}
      - {x: 0.115234375, y: 0.16894531}
      - {x: 0.11816406, y: 0.16699219}
      - {x: 0.11816406, y: 0.16601562}
      - {x: 0.125, y: 0.15722656}
      - {x: 0.11621094, y: 0.1484375}
      - {x: 0.1171875, y: 0.1484375}
--- !u!114 &114973473073652462
MonoBehaviour:
  m_ObjectHideFlags: 1
  m_CorrespondingSourceObject: {fileID: 0}
  m_PrefabInternal: {fileID: 100100000}
  m_GameObject: {fileID: 1259581702507700}
  m_Enabled: 1
  m_EditorHideFlags: 0
  m_Script: {fileID: 11500000, guid: 76886e9705135884cb5e166316ec530b, type: 3}
  m_Name: 
  m_EditorClassIdentifier: 
--- !u!212 &212962653332021002
SpriteRenderer:
  m_ObjectHideFlags: 1
  m_CorrespondingSourceObject: {fileID: 0}
  m_PrefabInternal: {fileID: 100100000}
  m_GameObject: {fileID: 1259581702507700}
  m_Enabled: 1
  m_CastShadows: 0
  m_ReceiveShadows: 0
  m_DynamicOccludee: 1
  m_MotionVectors: 1
  m_LightProbeUsage: 1
  m_ReflectionProbeUsage: 1
  m_RenderingLayerMask: 4294967295
  m_Materials:
  - {fileID: 10754, guid: 0000000000000000f000000000000000, type: 0}
  m_StaticBatchInfo:
    firstSubMesh: 0
    subMeshCount: 0
  m_StaticBatchRoot: {fileID: 0}
  m_ProbeAnchor: {fileID: 0}
  m_LightProbeVolumeOverride: {fileID: 0}
  m_ScaleInLightmap: 1
  m_PreserveUVs: 0
  m_IgnoreNormalsForChartDetection: 0
  m_ImportantGI: 0
  m_StitchLightmapSeams: 0
  m_SelectedEditorRenderState: 0
  m_MinimumChartSize: 4
  m_AutoUVMaxDistance: 0.5
  m_AutoUVMaxAngle: 89
  m_LightmapParameters: {fileID: 0}
  m_SortingLayerID: 0
  m_SortingLayer: 0
  m_SortingOrder: 0
  m_Sprite: {fileID: 21300000, guid: 0df47a06278d9a84da686e6ad44d6b65, type: 3}
  m_Color: {r: 1, g: 1, b: 1, a: 1}
  m_FlipX: 0
  m_FlipY: 0
  m_DrawMode: 0
  m_Size: {x: 1, y: 1}
  m_AdaptiveModeThreshold: 0.5
  m_SpriteTileMode: 0
  m_WasSpriteAssigned: 1
  m_MaskInteraction: 0
  m_SpriteSortPoint: 0
