%YAML 1.1
%TAG !u! tag:unity3d.com,2011:
--- !u!1001 &100100000
Prefab:
  m_ObjectHideFlags: 1
  serializedVersion: 2
  m_Modification:
    m_TransformParent: {fileID: 0}
    m_Modifications: []
    m_RemovedComponents: []
  m_SourcePrefab: {fileID: 0}
  m_RootGameObject: {fileID: 1921973255836804}
  m_IsPrefabAsset: 1
--- !u!1 &1921973255836804
GameObject:
  m_ObjectHideFlags: 0
  m_CorrespondingSourceObject: {fileID: 0}
  m_PrefabInternal: {fileID: 100100000}
  serializedVersion: 6
  m_Component:
  - component: {fileID: 4894195512905280}
  - component: {fileID: 212033328944526628}
  - component: {fileID: 60543890348211914}
  - component: {fileID: 114793218534080440}
  m_Layer: 0
  m_Name: Tisch
  m_TagString: Untagged
  m_Icon: {fileID: 0}
  m_NavMeshLayer: 0
  m_StaticEditorFlags: 0
  m_IsActive: 1
--- !u!4 &4894195512905280
Transform:
  m_ObjectHideFlags: 1
  m_CorrespondingSourceObject: {fileID: 0}
  m_PrefabInternal: {fileID: 100100000}
  m_GameObject: {fileID: 1921973255836804}
  m_LocalRotation: {x: -0, y: -0, z: -0, w: 1}
  m_LocalPosition: {x: -0.32, y: 2.33, z: -0.04361282}
  m_LocalScale: {x: 2, y: 2, z: 2}
  m_Children: []
  m_Father: {fileID: 0}
  m_RootOrder: 0
  m_LocalEulerAnglesHint: {x: 0, y: 0, z: 0}
--- !u!60 &60543890348211914
PolygonCollider2D:
  m_ObjectHideFlags: 1
  m_CorrespondingSourceObject: {fileID: 0}
  m_PrefabInternal: {fileID: 100100000}
  m_GameObject: {fileID: 1921973255836804}
  m_Enabled: 1
  m_Density: 1
  m_Material: {fileID: 0}
  m_IsTrigger: 0
  m_UsedByEffector: 0
  m_UsedByComposite: 0
  m_Offset: {x: 0, y: 0}
  m_SpriteTilingProperty:
    border: {x: 0, y: 0, z: 0, w: 0}
    pivot: {x: 0.5, y: 0.5}
    oldSize: {x: 1, y: 1}
    newSize: {x: 1, y: 1}
    adaptiveTilingThreshold: 0.5
    drawMode: 0
    adaptiveTiling: 0
  m_AutoTiling: 0
  m_Points:
    m_Paths:
    - - {x: -0.15722656, y: -0.123046875}
      - {x: -0.15527344, y: -0.12207031}
      - {x: 0.17773438, y: -0.12988281}
      - {x: 0.14355469, y: -0.19726562}
      - {x: 0.14453125, y: -0.20410156}
      - {x: 0.15039062, y: -0.20800781}
      - {x: 0.17773438, y: -0.20800781}
      - {x: 0.18554688, y: -0.19726562}
      - {x: 0.23242188, y: -0.11035156}
      - {x: 0.23144531, y: -0.08203125}
      - {x: 0.23339844, y: -0.00390625}
      - {x: 0.23339844, y: 0.053710938}
      - {x: 0.22949219, y: 0.087890625}
      - {x: 0.22558594, y: 0.08984375}
      - {x: 0.18554688, y: 0.08984375}
      - {x: -0.01171875, y: 0.08886719}
      - {x: -0.23242188, y: 0.087890625}
      - {x: -0.24316406, y: 0.087890625}
      - {x: -0.25, y: 0.08203125}
      - {x: -0.2529297, y: 0.048828125}
      - {x: -0.2529297, y: -0.0048828125}
      - {x: -0.25195312, y: -0.08691406}
      - {x: -0.2529297, y: -0.08691406}
      - {x: -0.2529297, y: -0.11425781}
      - {x: -0.22753906, y: -0.15917969}
      - {x: -0.20898438, y: -0.20410156}
      - {x: -0.20507812, y: -0.20800781}
      - {x: -0.17675781, y: -0.20800781}
      - {x: -0.16796875, y: -0.20605469}
      - {x: -0.16992188, y: -0.19726562}
      - {x: -0.19921875, y: -0.14257812}
      - {x: -0.20800781, y: -0.12109375}
--- !u!114 &114793218534080440
MonoBehaviour:
  m_ObjectHideFlags: 1
  m_CorrespondingSourceObject: {fileID: 0}
  m_PrefabInternal: {fileID: 100100000}
  m_GameObject: {fileID: 1921973255836804}
  m_Enabled: 1
  m_EditorHideFlags: 0
  m_Script: {fileID: 11500000, guid: 76886e9705135884cb5e166316ec530b, type: 3}
  m_Name: 
  m_EditorClassIdentifier: 
--- !u!212 &212033328944526628
SpriteRenderer:
  m_ObjectHideFlags: 1
  m_CorrespondingSourceObject: {fileID: 0}
  m_PrefabInternal: {fileID: 100100000}
  m_GameObject: {fileID: 1921973255836804}
  m_Enabled: 1
  m_CastShadows: 0
  m_ReceiveShadows: 0
  m_DynamicOccludee: 1
  m_MotionVectors: 1
  m_LightProbeUsage: 1
  m_ReflectionProbeUsage: 1
  m_RenderingLayerMask: 4294967295
  m_Materials:
  - {fileID: 10754, guid: 0000000000000000f000000000000000, type: 0}
  m_StaticBatchInfo:
    firstSubMesh: 0
    subMeshCount: 0
  m_StaticBatchRoot: {fileID: 0}
  m_ProbeAnchor: {fileID: 0}
  m_LightProbeVolumeOverride: {fileID: 0}
  m_ScaleInLightmap: 1
  m_PreserveUVs: 0
  m_IgnoreNormalsForChartDetection: 0
  m_ImportantGI: 0
  m_StitchLightmapSeams: 0
  m_SelectedEditorRenderState: 0
  m_MinimumChartSize: 4
  m_AutoUVMaxDistance: 0.5
  m_AutoUVMaxAngle: 89
  m_LightmapParameters: {fileID: 0}
  m_SortingLayerID: 0
  m_SortingLayer: 0
  m_SortingOrder: 0
  m_Sprite: {fileID: 21300000, guid: b5748537b7c32e843963fdea61f5bea9, type: 3}
  m_Color: {r: 1, g: 1, b: 1, a: 1}
  m_FlipX: 0
  m_FlipY: 0
  m_DrawMode: 0
  m_Size: {x: 1, y: 1}
  m_AdaptiveModeThreshold: 0.5
  m_SpriteTileMode: 0
  m_WasSpriteAssigned: 1
  m_MaskInteraction: 0
  m_SpriteSortPoint: 0
