%YAML 1.1
%TAG !u! tag:unity3d.com,2011:
--- !u!1001 &100100000
Prefab:
  m_ObjectHideFlags: 1
  serializedVersion: 2
  m_Modification:
    m_TransformParent: {fileID: 0}
    m_Modifications: []
    m_RemovedComponents: []
  m_SourcePrefab: {fileID: 0}
  m_RootGameObject: {fileID: 1963336402226428}
  m_IsPrefabAsset: 1
--- !u!1 &1963336402226428
GameObject:
  m_ObjectHideFlags: 0
  m_CorrespondingSourceObject: {fileID: 0}
  m_PrefabInternal: {fileID: 100100000}
  serializedVersion: 6
  m_Component:
  - component: {fileID: 4371124372047394}
  - component: {fileID: 212163968331416326}
  - component: {fileID: 60016351615312394}
  - component: {fileID: 114201522461759908}
  m_Layer: 0
  m_Name: Trennwand
  m_TagString: Untagged
  m_Icon: {fileID: 0}
  m_NavMeshLayer: 0
  m_StaticEditorFlags: 0
  m_IsActive: 1
--- !u!4 &4371124372047394
Transform:
  m_ObjectHideFlags: 1
  m_CorrespondingSourceObject: {fileID: 0}
  m_PrefabInternal: {fileID: 100100000}
  m_GameObject: {fileID: 1963336402226428}
  m_LocalRotation: {x: -0, y: -0, z: -0, w: 1}
  m_LocalPosition: {x: -6.33, y: -0.08, z: -0.04361282}
  m_LocalScale: {x: 2, y: 2, z: 2}
  m_Children: []
  m_Father: {fileID: 0}
  m_RootOrder: 0
  m_LocalEulerAnglesHint: {x: 0, y: 0, z: 0}
--- !u!60 &60016351615312394
PolygonCollider2D:
  m_ObjectHideFlags: 1
  m_CorrespondingSourceObject: {fileID: 0}
  m_PrefabInternal: {fileID: 100100000}
  m_GameObject: {fileID: 1963336402226428}
  m_Enabled: 1
  m_Density: 1
  m_Material: {fileID: 0}
  m_IsTrigger: 0
  m_UsedByEffector: 0
  m_UsedByComposite: 0
  m_Offset: {x: 0, y: 0}
  m_SpriteTilingProperty:
    border: {x: 0, y: 0, z: 0, w: 0}
    pivot: {x: 0.5, y: 0.5}
    oldSize: {x: 1, y: 1}
    newSize: {x: 1, y: 1}
    adaptiveTilingThreshold: 0.5
    drawMode: 0
    adaptiveTiling: 0
  m_AutoTiling: 0
  m_Points:
    m_Paths:
    - - {x: -0.11328125, y: -0.3017578}
      - {x: -0.103515625, y: -0.29589844}
      - {x: -0.055664062, y: -0.26367188}
      - {x: -0.017578125, y: -0.23730469}
      - {x: -0.009765625, y: -0.23144531}
      - {x: -0.0107421875, y: -0.23730469}
      - {x: -0.005859375, y: -0.24414062}
      - {x: 0.0009765625, y: -0.24316406}
      - {x: 0.015625, y: -0.2421875}
      - {x: 0.020507812, y: -0.23828125}
      - {x: 0.0234375, y: -0.234375}
      - {x: 0.02734375, y: -0.23828125}
      - {x: 0.07128906, y: -0.27441406}
      - {x: 0.10058594, y: -0.29882812}
      - {x: 0.10058594, y: -0.32910156}
      - {x: 0.10546875, y: -0.3359375}
      - {x: 0.123046875, y: -0.3359375}
      - {x: 0.13574219, y: -0.33496094}
      - {x: 0.14257812, y: -0.3330078}
      - {x: 0.14746094, y: -0.328125}
      - {x: 0.14746094, y: -0.31347656}
      - {x: 0.14648438, y: -0.2998047}
      - {x: 0.16113281, y: -0.29296875}
      - {x: 0.19433594, y: -0.27539062}
      - {x: 0.20898438, y: -0.26757812}
      - {x: 0.22558594, y: -0.25878906}
      - {x: 0.24023438, y: -0.25097656}
      - {x: 0.25683594, y: -0.2421875}
      - {x: 0.26953125, y: -0.234375}
      - {x: 0.26953125, y: -0.24511719}
      - {x: 0.27539062, y: -0.2529297}
      - {x: 0.2939453, y: -0.25097656}
      - {x: 0.29785156, y: -0.24707031}
      - {x: 0.30273438, y: -0.24316406}
      - {x: 0.36328125, y: -0.29492188}
      - {x: 0.37109375, y: -0.3017578}
      - {x: 0.37304688, y: -0.30273438}
      - {x: 0.37304688, y: -0.31445312}
      - {x: 0.37402344, y: -0.32128906}
      - {x: 0.375, y: -0.32910156}
      - {x: 0.3779297, y: -0.33496094}
      - {x: 0.38085938, y: -0.3359375}
      - {x: 0.40039062, y: -0.3359375}
      - {x: 0.40527344, y: -0.3330078}
      - {x: 0.40527344, y: -0.30371094}
      - {x: 0.40429688, y: -0.2939453}
      - {x: 0.40429688, y: -0.18652344}
      - {x: 0.40527344, y: -0.18457031}
      - {x: 0.40527344, y: -0.12402344}
      - {x: 0.40429688, y: -0.12402344}
      - {x: 0.40429688, y: 0.22949219}
      - {x: 0.40234375, y: 0.234375}
      - {x: 0.3984375, y: 0.23925781}
      - {x: 0.30078125, y: 0.3232422}
      - {x: 0.29589844, y: 0.328125}
      - {x: 0.2890625, y: 0.3310547}
      - {x: 0.28320312, y: 0.3310547}
      - {x: 0.2626953, y: 0.32128906}
      - {x: 0.23339844, y: 0.30566406}
      - {x: 0.21679688, y: 0.296875}
      - {x: 0.20214844, y: 0.2890625}
      - {x: 0.18554688, y: 0.28027344}
      - {x: 0.18359375, y: 0.2783203}
      - {x: 0.15234375, y: 0.2626953}
      - {x: 0.13769531, y: 0.2548828}
      - {x: 0.12207031, y: 0.24609375}
      - {x: 0.119140625, y: 0.24902344}
      - {x: 0.09277344, y: 0.27148438}
      - {x: 0.037109375, y: 0.31640625}
      - {x: 0.032226562, y: 0.3203125}
      - {x: 0.025390625, y: 0.32617188}
      - {x: 0.016601562, y: 0.33398438}
      - {x: 0.009765625, y: 0.33691406}
      - {x: 0.00390625, y: 0.33691406}
      - {x: -0.0029296875, y: 0.33398438}
      - {x: -0.020507812, y: 0.32226562}
      - {x: -0.11621094, y: 0.2578125}
      - {x: -0.125, y: 0.25097656}
      - {x: -0.13574219, y: 0.24316406}
      - {x: -0.14550781, y: 0.25195312}
      - {x: -0.19726562, y: 0.2919922}
      - {x: -0.20605469, y: 0.29882812}
      - {x: -0.24414062, y: 0.328125}
      - {x: -0.25097656, y: 0.3310547}
      - {x: -0.25683594, y: 0.3310547}
      - {x: -0.26757812, y: 0.32617188}
      - {x: -0.28320312, y: 0.3173828}
      - {x: -0.39648438, y: 0.2529297}
      - {x: -0.40820312, y: 0.24609375}
      - {x: -0.41503906, y: 0.23828125}
      - {x: -0.41503906, y: 0.043945312}
      - {x: -0.41601562, y: 0.04296875}
      - {x: -0.41601562, y: 0.03125}
      - {x: -0.41503906, y: 0.030273438}
      - {x: -0.41503906, y: -0.296875}
      - {x: -0.41601562, y: -0.296875}
      - {x: -0.41601562, y: -0.32910156}
      - {x: -0.4111328, y: -0.3359375}
      - {x: -0.3857422, y: -0.33691406}
      - {x: -0.3828125, y: -0.3359375}
      - {x: -0.375, y: -0.32617188}
      - {x: -0.3779297, y: -0.296875}
      - {x: -0.36523438, y: -0.29003906}
      - {x: -0.34472656, y: -0.2783203}
      - {x: -0.32910156, y: -0.26953125}
      - {x: -0.28808594, y: -0.24609375}
      - {x: -0.27929688, y: -0.24121094}
      - {x: -0.27148438, y: -0.24121094}
      - {x: -0.2705078, y: -0.24414062}
      - {x: -0.26660156, y: -0.24804688}
      - {x: -0.26171875, y: -0.24902344}
      - {x: -0.24414062, y: -0.25}
      - {x: -0.23828125, y: -0.24414062}
      - {x: -0.23828125, y: -0.23925781}
      - {x: -0.22753906, y: -0.24902344}
      - {x: -0.19140625, y: -0.27539062}
      - {x: -0.1875, y: -0.2783203}
      - {x: -0.18261719, y: -0.28222656}
      - {x: -0.17871094, y: -0.28515625}
      - {x: -0.17089844, y: -0.2919922}
      - {x: -0.16210938, y: -0.29882812}
      - {x: -0.15917969, y: -0.3046875}
      - {x: -0.15820312, y: -0.32714844}
      - {x: -0.15722656, y: -0.3310547}
      - {x: -0.15429688, y: -0.3359375}
      - {x: -0.15136719, y: -0.33691406}
      - {x: -0.12890625, y: -0.33789062}
      - {x: -0.12011719, y: -0.33789062}
      - {x: -0.115234375, y: -0.33496094}
      - {x: -0.11425781, y: -0.33203125}
      - {x: -0.11328125, y: -0.3154297}
--- !u!114 &114201522461759908
MonoBehaviour:
  m_ObjectHideFlags: 1
  m_CorrespondingSourceObject: {fileID: 0}
  m_PrefabInternal: {fileID: 100100000}
  m_GameObject: {fileID: 1963336402226428}
  m_Enabled: 1
  m_EditorHideFlags: 0
  m_Script: {fileID: 11500000, guid: 76886e9705135884cb5e166316ec530b, type: 3}
  m_Name: 
  m_EditorClassIdentifier: 
--- !u!212 &212163968331416326
SpriteRenderer:
  m_ObjectHideFlags: 1
  m_CorrespondingSourceObject: {fileID: 0}
  m_PrefabInternal: {fileID: 100100000}
  m_GameObject: {fileID: 1963336402226428}
  m_Enabled: 1
  m_CastShadows: 0
  m_ReceiveShadows: 0
  m_DynamicOccludee: 1
  m_MotionVectors: 1
  m_LightProbeUsage: 1
  m_ReflectionProbeUsage: 1
  m_RenderingLayerMask: 4294967295
  m_Materials:
  - {fileID: 10754, guid: 0000000000000000f000000000000000, type: 0}
  m_StaticBatchInfo:
    firstSubMesh: 0
    subMeshCount: 0
  m_StaticBatchRoot: {fileID: 0}
  m_ProbeAnchor: {fileID: 0}
  m_LightProbeVolumeOverride: {fileID: 0}
  m_ScaleInLightmap: 1
  m_PreserveUVs: 0
  m_IgnoreNormalsForChartDetection: 0
  m_ImportantGI: 0
  m_StitchLightmapSeams: 0
  m_SelectedEditorRenderState: 0
  m_MinimumChartSize: 4
  m_AutoUVMaxDistance: 0.5
  m_AutoUVMaxAngle: 89
  m_LightmapParameters: {fileID: 0}
  m_SortingLayerID: 0
  m_SortingLayer: 0
  m_SortingOrder: 0
  m_Sprite: {fileID: 21300000, guid: 03eae52975afc4640a1b17e940308b93, type: 3}
  m_Color: {r: 1, g: 1, b: 1, a: 1}
  m_FlipX: 0
  m_FlipY: 0
  m_DrawMode: 0
  m_Size: {x: 1, y: 1}
  m_AdaptiveModeThreshold: 0.5
  m_SpriteTileMode: 0
  m_WasSpriteAssigned: 1
  m_MaskInteraction: 0
  m_SpriteSortPoint: 0
