%YAML 1.1
%TAG !u! tag:unity3d.com,2011:
--- !u!74 &7400000
AnimationClip:
  m_ObjectHideFlags: 0
  m_CorrespondingSourceObject: {fileID: 0}
  m_PrefabInternal: {fileID: 0}
  m_Name: BrainEmpty
  serializedVersion: 6
  m_Legacy: 0
  m_Compressed: 0
  m_UseHighQualityCurve: 1
  m_RotationCurves: []
  m_CompressedRotationCurves: []
  m_EulerCurves: []
  m_PositionCurves: []
  m_ScaleCurves: []
  m_FloatCurves:
  - curve:
      serializedVersion: 2
      m_Curve:
      - serializedVersion: 3
        time: 0
        value: 0
        inSlope: Infinity
        outSlope: Infinity
        tangentMode: 103
        weightedMode: 0
        inWeight: 0
        outWeight: 0
      - serializedVersion: 3
        time: 1.6
        value: 0
        inSlope: Infinity
        outSlope: Infinity
        tangentMode: 103
        weightedMode: 0
        inWeight: 0
        outWeight: 0
      m_PreInfinity: 2
      m_PostInfinity: 2
      m_RotationOrder: 4
    attribute: m_IsActive
    path: Insanity
    classID: 1
    script: {fileID: 0}
  m_PPtrCurves:
  - curve:
    - time: 0
      value: {fileID: 21300000, guid: aeac6374e5622c7458bf62508e9f93f4, type: 3}
    - time: 0.2
      value: {fileID: 21300002, guid: aeac6374e5622c7458bf62508e9f93f4, type: 3}
    - time: 0.4
      value: {fileID: 21300004, guid: aeac6374e5622c7458bf62508e9f93f4, type: 3}
    - time: 0.6
      value: {fileID: 21300006, guid: aeac6374e5622c7458bf62508e9f93f4, type: 3}
    - time: 0.8
      value: {fileID: 21300008, guid: aeac6374e5622c7458bf62508e9f93f4, type: 3}
    - time: 1
      value: {fileID: 21300010, guid: aeac6374e5622c7458bf62508e9f93f4, type: 3}
    - time: 1.2
      value: {fileID: 21300012, guid: aeac6374e5622c7458bf62508e9f93f4, type: 3}
    - time: 1.4
      value: {fileID: 21300014, guid: aeac6374e5622c7458bf62508e9f93f4, type: 3}
    - time: 1.6
      value: {fileID: 21300016, guid: aeac6374e5622c7458bf62508e9f93f4, type: 3}
    attribute: m_Sprite
    path: BrainFilling
    classID: 114
    script: {fileID: -765806418, guid: f70555f144d8491a825f0804e09c671c, type: 3}
  - curve:
    - time: 0
      value: {fileID: 21300000, guid: bfe82c073e2eade489a059f72e3efe04, type: 3}
    - time: 0.2
      value: {fileID: 21300002, guid: bfe82c073e2eade489a059f72e3efe04, type: 3}
    - time: 0.4
      value: {fileID: 21300004, guid: bfe82c073e2eade489a059f72e3efe04, type: 3}
    - time: 0.6
      value: {fileID: 21300006, guid: bfe82c073e2eade489a059f72e3efe04, type: 3}
    - time: 0.8
      value: {fileID: 21300008, guid: bfe82c073e2eade489a059f72e3efe04, type: 3}
    - time: 1
      value: {fileID: 21300010, guid: bfe82c073e2eade489a059f72e3efe04, type: 3}
    - time: 1.2
      value: {fileID: 21300012, guid: bfe82c073e2eade489a059f72e3efe04, type: 3}
    - time: 1.4
      value: {fileID: 21300014, guid: bfe82c073e2eade489a059f72e3efe04, type: 3}
    - time: 1.6
      value: {fileID: 21300016, guid: bfe82c073e2eade489a059f72e3efe04, type: 3}
    attribute: m_Sprite
    path: Background
    classID: 114
    script: {fileID: -765806418, guid: f70555f144d8491a825f0804e09c671c, type: 3}
  m_SampleRate: 25
  m_WrapMode: 0
  m_Bounds:
    m_Center: {x: 0, y: 0, z: 0}
    m_Extent: {x: 0, y: 0, z: 0}
  m_ClipBindingConstant:
    genericBindings:
    - serializedVersion: 2
      path: 1609045360
      attribute: 2086281974
      script: {fileID: 0}
      typeID: 1
      customType: 0
      isPPtrCurve: 0
    - serializedVersion: 2
      path: 1090216017
      attribute: 2015549526
      script: {fileID: -765806418, guid: f70555f144d8491a825f0804e09c671c, type: 3}
      typeID: 114
      customType: 0
      isPPtrCurve: 1
    - serializedVersion: 2
      path: 4080383872
      attribute: 2015549526
      script: {fileID: -765806418, guid: f70555f144d8491a825f0804e09c671c, type: 3}
      typeID: 114
      customType: 0
      isPPtrCurve: 1
    pptrCurveMapping:
    - {fileID: 21300000, guid: aeac6374e5622c7458bf62508e9f93f4, type: 3}
    - {fileID: 21300002, guid: aeac6374e5622c7458bf62508e9f93f4, type: 3}
    - {fileID: 21300004, guid: aeac6374e5622c7458bf62508e9f93f4, type: 3}
    - {fileID: 21300006, guid: aeac6374e5622c7458bf62508e9f93f4, type: 3}
    - {fileID: 21300008, guid: aeac6374e5622c7458bf62508e9f93f4, type: 3}
    - {fileID: 21300010, guid: aeac6374e5622c7458bf62508e9f93f4, type: 3}
    - {fileID: 21300012, guid: aeac6374e5622c7458bf62508e9f93f4, type: 3}
    - {fileID: 21300014, guid: aeac6374e5622c7458bf62508e9f93f4, type: 3}
    - {fileID: 21300016, guid: aeac6374e5622c7458bf62508e9f93f4, type: 3}
    - {fileID: 21300000, guid: bfe82c073e2eade489a059f72e3efe04, type: 3}
    - {fileID: 21300002, guid: bfe82c073e2eade489a059f72e3efe04, type: 3}
    - {fileID: 21300004, guid: bfe82c073e2eade489a059f72e3efe04, type: 3}
    - {fileID: 21300006, guid: bfe82c073e2eade489a059f72e3efe04, type: 3}
    - {fileID: 21300008, guid: bfe82c073e2eade489a059f72e3efe04, type: 3}
    - {fileID: 21300010, guid: bfe82c073e2eade489a059f72e3efe04, type: 3}
    - {fileID: 21300012, guid: bfe82c073e2eade489a059f72e3efe04, type: 3}
    - {fileID: 21300014, guid: bfe82c073e2eade489a059f72e3efe04, type: 3}
    - {fileID: 21300016, guid: bfe82c073e2eade489a059f72e3efe04, type: 3}
  m_AnimationClipSettings:
    serializedVersion: 2
    m_AdditiveReferencePoseClip: {fileID: 0}
    m_AdditiveReferencePoseTime: 0
    m_StartTime: 0
    m_StopTime: 1.64
    m_OrientationOffsetY: 0
    m_Level: 0
    m_CycleOffset: 0
    m_HasAdditiveReferencePose: 0
    m_LoopTime: 1
    m_LoopBlend: 0
    m_LoopBlendOrientation: 0
    m_LoopBlendPositionY: 0
    m_LoopBlendPositionXZ: 0
    m_KeepOriginalOrientation: 0
    m_KeepOriginalPositionY: 1
    m_KeepOriginalPositionXZ: 0
    m_HeightFromFeet: 0
    m_Mirror: 0
  m_EditorCurves:
  - curve:
      serializedVersion: 2
      m_Curve:
      - serializedVersion: 3
        time: 0
        value: 0
        inSlope: Infinity
        outSlope: Infinity
        tangentMode: 103
        weightedMode: 0
        inWeight: 0
        outWeight: 0
      - serializedVersion: 3
        time: 1.6
        value: 0
        inSlope: Infinity
        outSlope: Infinity
        tangentMode: 103
        weightedMode: 0
        inWeight: 0
        outWeight: 0
      m_PreInfinity: 2
      m_PostInfinity: 2
      m_RotationOrder: 4
    attribute: m_IsActive
    path: Insanity
    classID: 1
    script: {fileID: 0}
  m_EulerEditorCurves: []
  m_HasGenericRootTransform: 0
  m_HasMotionFloatCurves: 0
  m_GenerateMotionCurves: 0
  m_Events: []
