%YAML 1.1
%TAG !u! tag:unity3d.com,2011:
--- !u!1001 &100100000
Prefab:
  m_ObjectHideFlags: 1
  serializedVersion: 2
  m_Modification:
    m_TransformParent: {fileID: 0}
    m_Modifications: []
    m_RemovedComponents: []
  m_SourcePrefab: {fileID: 0}
  m_RootGameObject: {fileID: 1357257554433486}
  m_IsPrefabAsset: 1
--- !u!1 &1357257554433486
GameObject:
  m_ObjectHideFlags: 0
  m_CorrespondingSourceObject: {fileID: 0}
  m_PrefabInternal: {fileID: 100100000}
  serializedVersion: 6
  m_Component:
  - component: {fileID: 4314365101316330}
  - component: {fileID: 2569400268567358612}
  m_Layer: 31
  m_Name: Default
  m_TagString: Untagged
  m_Icon: {fileID: 0}
  m_NavMeshLayer: 0
  m_StaticEditorFlags: 0
  m_IsActive: 1
--- !u!1 &1551120065827568
GameObject:
  m_ObjectHideFlags: 0
  m_CorrespondingSourceObject: {fileID: 0}
  m_PrefabInternal: {fileID: 100100000}
  serializedVersion: 6
  m_Component:
  - component: {fileID: 4545236876548826}
  - component: {fileID: 8195094282814107014}
  - component: {fileID: 3664157346114078220}
  m_Layer: 31
  m_Name: Layer1
  m_TagString: Untagged
  m_Icon: {fileID: 0}
  m_NavMeshLayer: 0
  m_StaticEditorFlags: 0
  m_IsActive: 1
--- !u!4 &4314365101316330
Transform:
  m_ObjectHideFlags: 1
  m_CorrespondingSourceObject: {fileID: 0}
  m_PrefabInternal: {fileID: 100100000}
  m_GameObject: {fileID: 1357257554433486}
  m_LocalRotation: {x: 0, y: 0, z: 0, w: 1}
  m_LocalPosition: {x: 0, y: 0, z: 0}
  m_LocalScale: {x: 1, y: 1, z: 1}
  m_Children:
  - {fileID: 4545236876548826}
  m_Father: {fileID: 0}
  m_RootOrder: 0
  m_LocalEulerAnglesHint: {x: 0, y: 0, z: 0}
--- !u!4 &4545236876548826
Transform:
  m_ObjectHideFlags: 1
  m_CorrespondingSourceObject: {fileID: 0}
  m_PrefabInternal: {fileID: 100100000}
  m_GameObject: {fileID: 1551120065827568}
  m_LocalRotation: {x: -0, y: -0, z: -0, w: 1}
  m_LocalPosition: {x: 0, y: 0, z: 0}
  m_LocalScale: {x: 1, y: 1, z: 1}
  m_Children: []
  m_Father: {fileID: 4314365101316330}
  m_RootOrder: 0
  m_LocalEulerAnglesHint: {x: 0, y: 0, z: 0}
--- !u!114 &114168279844481762
MonoBehaviour:
  m_ObjectHideFlags: 0
  m_CorrespondingSourceObject: {fileID: 0}
  m_PrefabInternal: {fileID: 0}
  m_GameObject: {fileID: 0}
  m_Enabled: 1
  m_EditorHideFlags: 1
  m_Script: {fileID: 12395, guid: 0000000000000000e000000000000000, type: 0}
  m_Name: Palette Settings
  m_EditorClassIdentifier: 
  cellSizing: 0
--- !u!156049354 &2569400268567358612
Grid:
  m_ObjectHideFlags: 1
  m_CorrespondingSourceObject: {fileID: 0}
  m_PrefabInternal: {fileID: 100100000}
  m_GameObject: {fileID: 1357257554433486}
  m_Enabled: 1
  m_CellSize: {x: 1, y: 1, z: 0}
  m_CellGap: {x: 0, y: 0, z: 0}
  m_CellLayout: 0
  m_CellSwizzle: 0
--- !u!483693784 &3664157346114078220
TilemapRenderer:
  m_ObjectHideFlags: 1
  m_CorrespondingSourceObject: {fileID: 0}
  m_PrefabInternal: {fileID: 100100000}
  m_GameObject: {fileID: 1551120065827568}
  m_Enabled: 0
  m_CastShadows: 0
  m_ReceiveShadows: 0
  m_DynamicOccludee: 0
  m_MotionVectors: 1
  m_LightProbeUsage: 0
  m_ReflectionProbeUsage: 0
  m_RenderingLayerMask: 4294967295
  m_Materials:
  - {fileID: 10754, guid: 0000000000000000f000000000000000, type: 0}
  m_StaticBatchInfo:
    firstSubMesh: 0
    subMeshCount: 0
  m_StaticBatchRoot: {fileID: 0}
  m_ProbeAnchor: {fileID: 0}
  m_LightProbeVolumeOverride: {fileID: 0}
  m_ScaleInLightmap: 1
  m_PreserveUVs: 0
  m_IgnoreNormalsForChartDetection: 0
  m_ImportantGI: 0
  m_StitchLightmapSeams: 0
  m_SelectedEditorRenderState: 0
  m_MinimumChartSize: 4
  m_AutoUVMaxDistance: 0.5
  m_AutoUVMaxAngle: 89
  m_LightmapParameters: {fileID: 0}
  m_SortingLayerID: 0
  m_SortingLayer: 0
  m_SortingOrder: 0
  m_ChunkSize: {x: 32, y: 32, z: 32}
  m_ChunkCullingBounds: {x: 0, y: 0, z: 0}
  m_MaxChunkCount: 16
  m_MaxFrameAge: 16
  m_SortOrder: 0
  m_DetectChunkCullingBounds: 0
  m_MaskInteraction: 0
--- !u!1839735485 &8195094282814107014
Tilemap:
  m_ObjectHideFlags: 1
  m_CorrespondingSourceObject: {fileID: 0}
  m_PrefabInternal: {fileID: 100100000}
  m_GameObject: {fileID: 1551120065827568}
  m_Enabled: 1
  m_Tiles:
  - first: {x: 3, y: -1, z: 0}
    second:
      m_TileIndex: 6
      m_TileSpriteIndex: 4
      m_TileMatrixIndex: 0
      m_TileColorIndex: 0
      m_ObjectToInstantiate: {fileID: 0}
      m_TileFlags: 1
      m_ColliderType: 1
  - first: {x: 4, y: -1, z: 0}
    second:
      m_TileIndex: 2
      m_TileSpriteIndex: 2
      m_TileMatrixIndex: 0
      m_TileColorIndex: 0
      m_ObjectToInstantiate: {fileID: 0}
      m_TileFlags: 1
      m_ColliderType: 1
  - first: {x: 5, y: -1, z: 0}
    second:
      m_TileIndex: 4
      m_TileSpriteIndex: 3
      m_TileMatrixIndex: 0
      m_TileColorIndex: 0
      m_ObjectToInstantiate: {fileID: 0}
      m_TileFlags: 1
      m_ColliderType: 1
  - first: {x: 0, y: 0, z: 0}
    second:
      m_TileIndex: 3
      m_TileSpriteIndex: 5
      m_TileMatrixIndex: 0
      m_TileColorIndex: 0
      m_ObjectToInstantiate: {fileID: 0}
      m_TileFlags: 1
      m_ColliderType: 0
  - first: {x: 3, y: 0, z: 0}
    second:
      m_TileIndex: 0
      m_TileSpriteIndex: 0
      m_TileMatrixIndex: 0
      m_TileColorIndex: 0
      m_ObjectToInstantiate: {fileID: 0}
      m_TileFlags: 1
      m_ColliderType: 1
  - first: {x: 5, y: 0, z: 0}
    second:
      m_TileIndex: 9
      m_TileSpriteIndex: 9
      m_TileMatrixIndex: 0
      m_TileColorIndex: 0
      m_ObjectToInstantiate: {fileID: 0}
      m_TileFlags: 1
      m_ColliderType: 1
  - first: {x: 8, y: 0, z: 0}
    second:
      m_TileIndex: 15
      m_TileSpriteIndex: 15
      m_TileMatrixIndex: 0
      m_TileColorIndex: 0
      m_ObjectToInstantiate: {fileID: 0}
      m_TileFlags: 1
      m_ColliderType: 1
  - first: {x: -1, y: 1, z: 0}
    second:
      m_TileIndex: 10
      m_TileSpriteIndex: 10
      m_TileMatrixIndex: 0
      m_TileColorIndex: 0
      m_ObjectToInstantiate: {fileID: 0}
      m_TileFlags: 1
      m_ColliderType: 1
  - first: {x: 0, y: 1, z: 0}
    second:
      m_TileIndex: 5
      m_TileSpriteIndex: 6
      m_TileMatrixIndex: 0
      m_TileColorIndex: 0
      m_ObjectToInstantiate: {fileID: 0}
      m_TileFlags: 1
      m_ColliderType: 0
  - first: {x: 3, y: 1, z: 0}
    second:
      m_TileIndex: 8
      m_TileSpriteIndex: 8
      m_TileMatrixIndex: 0
      m_TileColorIndex: 0
      m_ObjectToInstantiate: {fileID: 0}
      m_TileFlags: 1
      m_ColliderType: 1
  - first: {x: 4, y: 1, z: 0}
    second:
      m_TileIndex: 1
      m_TileSpriteIndex: 1
      m_TileMatrixIndex: 0
      m_TileColorIndex: 0
      m_ObjectToInstantiate: {fileID: 0}
      m_TileFlags: 1
      m_ColliderType: 1
  - first: {x: 5, y: 1, z: 0}
    second:
      m_TileIndex: 7
      m_TileSpriteIndex: 7
      m_TileMatrixIndex: 0
      m_TileColorIndex: 0
      m_ObjectToInstantiate: {fileID: 0}
      m_TileFlags: 1
      m_ColliderType: 1
  - first: {x: 6, y: 1, z: 0}
    second:
      m_TileIndex: 11
      m_TileSpriteIndex: 11
      m_TileMatrixIndex: 0
      m_TileColorIndex: 0
      m_ObjectToInstantiate: {fileID: 0}
      m_TileFlags: 1
      m_ColliderType: 1
  - first: {x: 7, y: 1, z: 0}
    second:
      m_TileIndex: 12
      m_TileSpriteIndex: 12
      m_TileMatrixIndex: 0
      m_TileColorIndex: 0
      m_ObjectToInstantiate: {fileID: 0}
      m_TileFlags: 1
      m_ColliderType: 1
  - first: {x: 9, y: 1, z: 0}
    second:
      m_TileIndex: 14
      m_TileSpriteIndex: 14
      m_TileMatrixIndex: 0
      m_TileColorIndex: 0
      m_ObjectToInstantiate: {fileID: 0}
      m_TileFlags: 1
      m_ColliderType: 1
  - first: {x: 2, y: 2, z: 0}
    second:
      m_TileIndex: 16
      m_TileSpriteIndex: 16
      m_TileMatrixIndex: 0
      m_TileColorIndex: 0
      m_ObjectToInstantiate: {fileID: 0}
      m_TileFlags: 1
      m_ColliderType: 1
  - first: {x: 3, y: 2, z: 0}
    second:
      m_TileIndex: 19
      m_TileSpriteIndex: 19
      m_TileMatrixIndex: 0
      m_TileColorIndex: 0
      m_ObjectToInstantiate: {fileID: 0}
      m_TileFlags: 1
      m_ColliderType: 1
  - first: {x: 8, y: 2, z: 0}
    second:
      m_TileIndex: 13
      m_TileSpriteIndex: 13
      m_TileMatrixIndex: 0
      m_TileColorIndex: 0
      m_ObjectToInstantiate: {fileID: 0}
      m_TileFlags: 1
      m_ColliderType: 1
  - first: {x: 2, y: 3, z: 0}
    second:
      m_TileIndex: 17
      m_TileSpriteIndex: 17
      m_TileMatrixIndex: 0
      m_TileColorIndex: 0
      m_ObjectToInstantiate: {fileID: 0}
      m_TileFlags: 1
      m_ColliderType: 1
  - first: {x: 3, y: 3, z: 0}
    second:
      m_TileIndex: 18
      m_TileSpriteIndex: 18
      m_TileMatrixIndex: 0
      m_TileColorIndex: 0
      m_ObjectToInstantiate: {fileID: 0}
      m_TileFlags: 1
      m_ColliderType: 1
  m_AnimatedTiles: {}
  m_TileAssetArray:
  - m_RefCount: 1
    m_Data: {fileID: 11400000, guid: 4b646f98d01541544a4b8262fc1574a0, type: 2}
  - m_RefCount: 1
    m_Data: {fileID: 11400000, guid: b2b0814da8ae9f24285beaba8a75435b, type: 2}
  - m_RefCount: 1
    m_Data: {fileID: 11400000, guid: 78633ca29a8ad5f4087887a1ab23f315, type: 2}
  - m_RefCount: 1
    m_Data: {fileID: 11400000, guid: 76dbad6e33787fd4ca7a1a34e31cb583, type: 2}
  - m_RefCount: 1
    m_Data: {fileID: 11400000, guid: 0f5f2a217dbdcac4faf55521bf0b88a4, type: 2}
  - m_RefCount: 1
    m_Data: {fileID: 11400000, guid: c921064bac589ac44ae317b280c74d19, type: 2}
  - m_RefCount: 1
    m_Data: {fileID: 11400000, guid: 4b3a90a6d1d527045a3c6992d96c3498, type: 2}
  - m_RefCount: 1
    m_Data: {fileID: 11400000, guid: 5a61c0121df719349afc3724bc765291, type: 2}
  - m_RefCount: 1
    m_Data: {fileID: 11400000, guid: 4e12f921136539e47be09ca39d851568, type: 2}
  - m_RefCount: 1
    m_Data: {fileID: 11400000, guid: 69767f68f8e631649bddd57c2a7add36, type: 2}
  - m_RefCount: 1
    m_Data: {fileID: 11400000, guid: 2d2f48a574be67c439cb1c2c9f97ee01, type: 2}
  - m_RefCount: 1
    m_Data: {fileID: 11400000, guid: 21077014bf2cabb459e392093494f452, type: 2}
  - m_RefCount: 1
    m_Data: {fileID: 11400000, guid: 36f3799ecfb9f7a49abc5090275c980c, type: 2}
  - m_RefCount: 1
    m_Data: {fileID: 11400000, guid: c80f21de7bdfd1547b76cd2ccb275e8f, type: 2}
  - m_RefCount: 1
    m_Data: {fileID: 11400000, guid: c7f94ac213b2b17429ec2a09c67a62db, type: 2}
  - m_RefCount: 1
    m_Data: {fileID: 11400000, guid: b5c1dd65e52b2394d9f235e92398ba2e, type: 2}
  - m_RefCount: 1
    m_Data: {fileID: 11400000, guid: ad8bf4b627fde59428b255122f57f1f0, type: 2}
  - m_RefCount: 1
    m_Data: {fileID: 11400000, guid: 807c77ad54a32cb4cb93e27ffbdc45e6, type: 2}
  - m_RefCount: 1
    m_Data: {fileID: 11400000, guid: 1f14bde1f68117941ac3b880c7ecb213, type: 2}
  - m_RefCount: 1
    m_Data: {fileID: 11400000, guid: b4d2462c22e242344970d9a5996f249f, type: 2}
  m_TileSpriteArray:
  - m_RefCount: 1
    m_Data: {fileID: 21300000, guid: df29dd09d618ded42bac8dbaf2021d22, type: 3}
  - m_RefCount: 1
    m_Data: {fileID: 21300000, guid: 4d72e97fd7d69744eb5e12fbfee4e8d5, type: 3}
  - m_RefCount: 1
    m_Data: {fileID: 21300000, guid: c2fe3e73d8de1ca4ab0287c90d5ad09b, type: 3}
  - m_RefCount: 1
    m_Data: {fileID: 21300000, guid: 9c29f23540b35a841affdb69ba5188b7, type: 3}
  - m_RefCount: 1
    m_Data: {fileID: 21300000, guid: 0b5b781330790f445bd1bef6c404c29e, type: 3}
  - m_RefCount: 1
    m_Data: {fileID: 21300000, guid: 9ad667a5d3b3d3943b2ddfc190d1a150, type: 3}
  - m_RefCount: 1
    m_Data: {fileID: 21300000, guid: a3679fc7b6a09af44864abdc60e9cd52, type: 3}
  - m_RefCount: 1
    m_Data: {fileID: 21300000, guid: ed65fa8eaaa306849ab85315973fd764, type: 3}
  - m_RefCount: 1
    m_Data: {fileID: 21300000, guid: e1a83d2f314c83246bf2f939b51c1671, type: 3}
  - m_RefCount: 1
    m_Data: {fileID: 21300000, guid: d864a3b662227c74895f4c0b18ec3652, type: 3}
  - m_RefCount: 1
    m_Data: {fileID: 21300000, guid: ff7558fa17217604e91a959a009f5920, type: 3}
  - m_RefCount: 1
    m_Data: {fileID: 21300000, guid: 36c37d1d31db46b4e9ac05a331612399, type: 3}
  - m_RefCount: 1
    m_Data: {fileID: 21300000, guid: 4360e35ce4392af498e0ef6dc65e9c4b, type: 3}
  - m_RefCount: 1
    m_Data: {fileID: 21300000, guid: 634871d2a1016c04394ca90a0c3d063a, type: 3}
  - m_RefCount: 1
    m_Data: {fileID: 21300000, guid: d9678f040445f88419a0566494320651, type: 3}
  - m_RefCount: 1
    m_Data: {fileID: 21300000, guid: 8bde48644443aad4ea962420f1ce0562, type: 3}
  - m_RefCount: 1
    m_Data: {fileID: 21300000, guid: 7cab44fe88357fa46a6b9e371ed07e8f, type: 3}
  - m_RefCount: 1
    m_Data: {fileID: 21300000, guid: 0d05ce8937a08a04b9d908e46ed1b759, type: 3}
  - m_RefCount: 1
    m_Data: {fileID: 21300000, guid: dcd6ea30406d1f34c80a92df4ebad2e6, type: 3}
  - m_RefCount: 1
    m_Data: {fileID: 21300000, guid: ae6e08d7ce1a1c24aa3dd653d1a25667, type: 3}
  m_TileMatrixArray:
  - m_RefCount: 20
    m_Data:
      e00: 1
      e01: 0
      e02: 0
      e03: 0
      e10: 0
      e11: 1
      e12: 0
      e13: 0
      e20: 0
      e21: 0
      e22: 1
      e23: 0
      e30: 0
      e31: 0
      e32: 0
      e33: 1
  - m_RefCount: 0
    m_Data:
      e00: 0
      e01: 38.99098
      e02: 38.99055
      e03: 0
      e10: 0
      e11: 3.8052e-41
      e12: 3.8052e-41
      e13: 0
      e20: 1.2112589e-34
      e21: 29.06334
      e22: 0
      e23: 1.11256296e+15
      e30: 0
      e31: 1e-45
      e32: 0
      e33: 0
  - m_RefCount: 0
    m_Data:
      e00: 0
      e01: 38.99098
      e02: 38.99055
      e03: 0
      e10: 0
      e11: 3.8052e-41
      e12: 3.8052e-41
      e13: 0
      e20: 1.2112589e-34
      e21: 29.06334
      e22: 0
      e23: 8.9883465e+14
      e30: 0
      e31: 1e-45
      e32: 0
      e33: 0
  m_TileColorArray:
  - m_RefCount: 20
    m_Data: {r: 1, g: 1, b: 1, a: 1}
  - m_RefCount: 0
    m_Data: {r: NaN, g: NaN, b: NaN, a: NaN}
  m_AnimationFrameRate: 1
  m_Color: {r: 1, g: 1, b: 1, a: 1}
  m_Origin: {x: -3, y: -3, z: 0}
  m_Size: {x: 13, y: 7, z: 1}
  m_TileAnchor: {x: 0.5, y: 0.5, z: 0}
  m_TileOrientation: 0
  m_TileOrientationMatrix:
    e00: 1
    e01: 0
    e02: 0
    e03: 0
    e10: 0
    e11: 1
    e12: 0
    e13: 0
    e20: 0
    e21: 0
    e22: 1
    e23: 0
    e30: 0
    e31: 0
    e32: 0
    e33: 1
